Assignment Week 3: United States Military Academy (USMA) West Point Data
…
Note you can make a table by just creating the appropriate data set and showing it, or by sending it to the knitr::kable() function to get it formatted a little more nicely.

7. Bonus task (ungraded, tricky): notice anything strange about the “random assignment” of women?

usma_1981 %>%
  filter(female == 1) %>%
  group_by(year, class, company, division) %>%
  summarize(females_per_group = n()) %>%
  arrange(females_per_group)

`summarise()` has grouped output by 'year', 'class', 'company'. You can
override using the `.groups` argument.

# A tibble: 109 × 5
# Groups:   year, class, company [33]
    year class company division females_per_group
   <dbl> <dbl> <chr>   <chr>                <int>
 1    81     1 H       4                        1
 2    81     2 B       2                        1
 3    81     2 E       2                        1
 4    81     4 D       2                        1
 5    81     4 H       1                        1
 6    81     1 I       4                        2
 7    81     2 A       3                        2
 8    81     2 B       1                        2
 9    81     2 B       3                        2
10    81     2 B       4                        2
# … with 99 more rows
…
